grid solution 
0.000000e+00 0.000000e+00 
5.000000e-01 1.433545e-01 
1.000000e+00 3.143399e-01 
1.500000e+00 5.378848e-01 
2.000000e+00 8.325008e-01 
2.500000e+00 1.205292e+00 
3.000000e+00 1.646666e+00 
3.500000e+00 2.126912e+00 
4.000000e+00 2.597258e+00 
4.500000e+00 2.997050e+00 
5.000000e+00 3.266454e+00 
5.500000e+00 3.361320e+00 
6.000000e+00 3.265156e+00 
6.500000e+00 2.993616e+00 
7.000000e+00 2.589630e+00 
7.500000e+00 2.110988e+00 
8.000000e+00 1.614915e+00 
8.500000e+00 1.144760e+00 
9.000000e+00 7.223448e-01 
9.500000e+00 3.469687e-01 
1.000000e+01 0.000000e+00 
