grid solution 
0.000000e+00 0.000000e+00 
5.000000e-01 8.460661e-02 
1.000000e+00 1.992435e-01 
1.500000e+00 3.749603e-01 
2.000000e+00 6.420033e-01 
2.500000e+00 1.023223e+00 
3.000000e+00 1.522953e+00 
3.500000e+00 2.114927e+00 
4.000000e+00 2.735895e+00 
4.500000e+00 3.291962e+00 
5.000000e+00 3.680180e+00 
5.500000e+00 3.819748e+00 
6.000000e+00 3.679929e+00 
6.500000e+00 3.291212e+00 
7.000000e+00 2.733955e+00 
7.500000e+00 2.110173e+00 
8.000000e+00 1.511831e+00 
8.500000e+00 9.984262e-01 
9.000000e+00 5.894847e-01 
9.500000e+00 2.696436e-01 
1.000000e+01 0.000000e+00 
